<?xml version="1.0" encoding="UTF-8" standalone="no"?>
<svg
   xmlns:dc="http://purl.org/dc/elements/1.1/"
   xmlns:cc="http://creativecommons.org/ns#"
   xmlns:rdf="http://www.w3.org/1999/02/22-rdf-syntax-ns#"
   xmlns:svg="http://www.w3.org/2000/svg"
   xmlns="http://www.w3.org/2000/svg"
   width="510"
   height="526"
   viewBox="0 0 510 526"
   id="IP-stack-connections"
   version="1.0">
  <title
     id="title169">IP stack connections</title>
  <defs
     id="defs4">
    <marker
       orient="auto"
       refY="0"
       refX="0"
       id="TriangleOutM"
       style="overflow:visible">
      <path
         id="path4256"
         d="M 5.77,0 -2.88,5 V -5 Z"
         style="fill-rule:evenodd;stroke:#000000;stroke-width:1.00000003pt;marker-start:none"
         transform="scale(0.4)" />
    </marker>
    <marker
       orient="auto"
       refY="0"
       refX="0"
       id="TriangleInM"
       style="overflow:visible">
      <path
         id="path4265"
         d="M 5.77,0 -2.88,5 V -5 Z"
         style="fill-rule:evenodd;stroke:#000000;stroke-width:1.00000003pt;marker-start:none"
         transform="scale(-0.4)" />
    </marker>
    <marker
       orient="auto"
       refY="0"
       refX="0"
       id="Torso"
       style="overflow:visible">
      <g
         id="g4193"
         transform="scale(0.7)">
        <path
           id="path4195"
           d="m -4.7792281,-3.239542 c 2.350374,0.3659393 5.30026732,1.9375477 5.03715532,3.62748546 C -0.00518779,2.0778819 -2.2126741,2.6176539 -4.5630471,2.2517169 -6.9134221,1.8857769 -8.521035,0.75201414 -8.257922,-0.93792336 -7.994809,-2.6278615 -7.1296041,-3.6054813 -4.7792281,-3.239542 Z"
           style="fill:none;fill-opacity:0.75;fill-rule:evenodd;stroke:#000000;stroke-width:1.25;marker:none" />
        <path
           id="path4197"
           d="M 4.4598789,0.08866574 C -2.5564571,-4.378332 5.2248769,-3.9061806 -0.84829578,-8.7197331"
           style="fill:none;fill-opacity:0.75;fill-rule:evenodd;stroke:#000000;stroke-width:1.00000003pt;marker-end:none" />
        <path
           id="path4199"
           d="M 4.9298719,0.05752074 C -1.3872731,1.7494689 1.8027579,5.4782079 -4.9448731,7.5462725"
           style="fill:none;fill-opacity:0.75;fill-rule:evenodd;stroke:#000000;stroke-width:1.00000003pt;marker-start:none;marker-end:none" />
        <rect
           id="rect4201"
           transform="matrix(0.527536,-0.849533,0.887668,0.460484,0,0)"
           y="-1.7408575"
           x="-10.391706"
           height="2.7608147"
           width="2.6366582"
           style="fill-rule:evenodd;stroke-width:1.00000003pt;marker-end:none" />
        <rect
           id="rect4203"
           transform="matrix(0.671205,-0.741272,0.790802,0.612072,0,0)"
           y="-7.9629307"
           x="4.9587269"
           height="2.8614161"
           width="2.7327356"
           style="fill-rule:evenodd;stroke-width:1.00000003pt;marker-end:none" />
        <path
           id="path4205"
           transform="matrix(0,-1.10952,1.10952,0,25.9665,19.7162)"
           d="m 16.779951,-28.685045 a 0.60731727,0.60731727 0 0 1 -0.607317,0.607317 0.60731727,0.60731727 0 0 1 -0.607317,-0.607317 0.60731727,0.60731727 0 0 1 0.607317,-0.607318 0.60731727,0.60731727 0 0 1 0.607317,0.607318 z"
           style="fill:#ff0000;fill-opacity:0.75;fill-rule:evenodd;stroke:#000000;stroke-width:1.00000003pt;marker-start:none;marker-end:none" />
        <path
           id="path4207"
           transform="matrix(0,-1.10952,1.10952,0,26.8245,16.9913)"
           d="m 16.779951,-28.685045 a 0.60731727,0.60731727 0 0 1 -0.607317,0.607317 0.60731727,0.60731727 0 0 1 -0.607317,-0.607317 0.60731727,0.60731727 0 0 1 0.607317,-0.607318 0.60731727,0.60731727 0 0 1 0.607317,0.607318 z"
           style="fill:#ff0000;fill-opacity:0.75;fill-rule:evenodd;stroke:#000000;stroke-width:1.00000003pt;marker-start:none;marker-end:none" />
      </g>
    </marker>
  </defs>
  <metadata
     id="metadata7">
    <rdf:RDF>
      <cc:Work
         rdf:about="">
        <dc:format>image/svg+xml</dc:format>
        <dc:type
           rdf:resource="http://purl.org/dc/dcmitype/StillImage" />
        <dc:title>IP stack connections</dc:title>
        <cc:license
           rdf:resource="http://creativecommons.org/licenses/by-sa/4.0/" />
        <dc:date>2018-07-21</dc:date>
        <dc:creator>
          <cc:Agent>
            <dc:title>en:User:JensLechtenboerger</dc:title>
          </cc:Agent>
        </dc:creator>
        <dc:contributor>
          <cc:Agent>
            <dc:title>en:User:Kbrose, https://en.wikipedia.org/wiki/User:Kbrose
en:User:Cburnett, https://en.wikipedia.org/wiki/User:Cburnett</dc:title>
          </cc:Agent>
        </dc:contributor>
        <dc:source>https://commons.wikimedia.org/wiki/File:IP_stack_connections.svg</dc:source>
        <dc:language>en</dc:language>
      </cc:Work>
      <cc:License
         rdf:about="http://creativecommons.org/licenses/by-sa/4.0/">
        <cc:permits
           rdf:resource="http://creativecommons.org/ns#Reproduction" />
        <cc:permits
           rdf:resource="http://creativecommons.org/ns#Distribution" />
        <cc:requires
           rdf:resource="http://creativecommons.org/ns#Notice" />
        <cc:requires
           rdf:resource="http://creativecommons.org/ns#Attribution" />
        <cc:permits
           rdf:resource="http://creativecommons.org/ns#DerivativeWorks" />
        <cc:requires
           rdf:resource="http://creativecommons.org/ns#ShareAlike" />
      </cc:License>
    </rdf:RDF>
  </metadata>
  <g
     transform="translate(-20,-15.6875)"
     id="layer1">
    <rect
       style="opacity:0.80800003;fill:#d4e0e0;fill-opacity:1;fill-rule:nonzero;stroke:none;stroke-width:1.59687197;stroke-linecap:round;stroke-linejoin:round;stroke-miterlimit:4;stroke-dasharray:1.59687194, 3.19374388;stroke-dashoffset:0pt;stroke-opacity:1"
       id="rect5656"
       width="510"
       height="120"
       x="20"
       y="50.453125" />
    <rect
       style="fill:#ccccff;fill-opacity:1;fill-rule:nonzero;stroke:#acadda;stroke-width:2;stroke-linecap:round;stroke-linejoin:round;stroke-miterlimit:4;stroke-dasharray:none;stroke-dashoffset:1.39999998;stroke-opacity:1"
       id="rect2162"
       width="80"
       height="80"
       x="40"
       y="70.453125" />
    <text
       xml:space="preserve"
       style="font-style:normal;font-variant:normal;font-weight:normal;font-stretch:normal;line-height:0%;font-family:'Bitstream Vera Sans';text-align:center;text-anchor:middle;fill:#000000;fill-opacity:1;stroke:none;stroke-width:1px;stroke-linecap:butt;stroke-linejoin:miter;stroke-opacity:1"
       x="79.189003"
       y="104.722"
       id="text3140"><tspan
         id="tspan3142"
         x="79.189003"
         y="104.722"
         style="font-size:22px;line-height:1.25">Host</tspan><tspan
         x="79.189003"
         y="132.222"
         id="tspan3144"
         style="font-size:22px;line-height:1.25">A</tspan></text>
    <path
       style="fill:#ccccff;fill-opacity:1;fill-rule:nonzero;stroke:#acadda;stroke-width:2;stroke-linecap:round;stroke-linejoin:round;stroke-miterlimit:4;stroke-dasharray:none;stroke-dashoffset:1.39999998;stroke-opacity:1"
       id="path3136"
       d="m 250.04346,110.4531 a 40,40 0 1 1 -80,0 40,40 0 1 1 80,0 z" />
    <text
       xml:space="preserve"
       style="font-style:normal;font-variant:normal;font-weight:normal;font-stretch:normal;line-height:0%;font-family:'Bitstream Vera Sans';text-align:center;text-anchor:middle;fill:#000000;fill-opacity:1;stroke:none;stroke-width:1px;stroke-linecap:butt;stroke-linejoin:miter;stroke-opacity:1"
       x="208.97501"
       y="118.316"
       id="text3152"><tspan
         id="tspan3154"
         x="208.97501"
         y="118.316"
         style="font-size:22px;line-height:1.25">Router</tspan></text>
    <path
       style="fill:#ccccff;fill-opacity:1;fill-rule:nonzero;stroke:#acadda;stroke-width:2;stroke-linecap:round;stroke-linejoin:round;stroke-miterlimit:4;stroke-dasharray:none;stroke-dashoffset:1.39999998;stroke-opacity:1"
       id="path3163"
       d="m 380.043,110.4531 a 40,40 0 1 1 -80,0 40,40 0 1 1 80,0 z" />
    <text
       xml:space="preserve"
       style="font-style:normal;font-variant:normal;font-weight:normal;font-stretch:normal;line-height:0%;font-family:'Bitstream Vera Sans';text-align:center;text-anchor:middle;fill:#000000;fill-opacity:1;stroke:none;stroke-width:1px;stroke-linecap:butt;stroke-linejoin:miter;stroke-opacity:1"
       x="338.97501"
       y="118.316"
       id="text3165"><tspan
         id="tspan3167"
         x="338.97501"
         y="118.316"
         style="font-size:22px;line-height:1.25">Router</tspan></text>
    <rect
       style="fill:#ccccff;fill-opacity:1;fill-rule:nonzero;stroke:#acadda;stroke-width:2;stroke-linecap:round;stroke-linejoin:round;stroke-miterlimit:4;stroke-dasharray:none;stroke-dashoffset:1.39999998;stroke-opacity:1"
       id="rect3177"
       width="80"
       height="80"
       x="430"
       y="70.453125" />
    <text
       xml:space="preserve"
       style="font-style:normal;font-variant:normal;font-weight:normal;font-stretch:normal;line-height:0%;font-family:'Bitstream Vera Sans';text-align:center;text-anchor:middle;fill:#000000;fill-opacity:1;stroke:none;stroke-width:1px;stroke-linecap:butt;stroke-linejoin:miter;stroke-opacity:1"
       x="469.189"
       y="104.722"
       id="text3179"><tspan
         id="tspan3181"
         x="469.189"
         y="104.722"
         style="font-size:22px;line-height:1.25">Host</tspan><tspan
         x="469.189"
         y="132.222"
         id="tspan3183"
         style="font-size:22px;line-height:1.25">B</tspan></text>
    <g
       transform="matrix(1.7432221,0,0,1,-152.6843,0)"
       id="g5972">
      <path
         style="fill:#000000;fill-opacity:1;fill-rule:evenodd;stroke:none;stroke-width:1.5;stroke-linecap:butt;stroke-linejoin:miter;stroke-miterlimit:4;stroke-opacity:1"
         d="m 231,109.25 v 1.5 h 24.78125 v -1.5 z"
         id="path4381" />
      <path
         style="fill-rule:evenodd;stroke:#000000;stroke-width:0.40000002pt;marker-start:none"
         d="m 259.25535,110 -5.19,3 v -6 z"
         id="path5978" />
    </g>
    <g
       transform="matrix(1.7374679,0,0,1,-211.47655,0)"
       id="g5980">
      <path
         style="fill:#000000;fill-opacity:1;fill-rule:evenodd;stroke:none;stroke-width:1.5;stroke-linecap:butt;stroke-linejoin:miter;stroke-miterlimit:4;stroke-opacity:1"
         d="m 341,109.25 v 1.5 h 24.75 v -1.5 z"
         id="path4385" />
      <path
         style="fill-rule:evenodd;stroke:#000000;stroke-width:0.40000002pt;marker-start:none"
         d="m 369.20196,110 -5.19,3 v -6 z"
         id="path5986" />
    </g>
    <g
       transform="matrix(1.7374679,0,0,1,-89.233615,0)"
       id="g5964">
      <path
         style="fill:#000000;fill-opacity:1;fill-rule:evenodd;stroke:none;stroke-width:1.5;stroke-linecap:butt;stroke-linejoin:miter;stroke-miterlimit:4;stroke-opacity:1"
         d="m 121,109.25 v 1.5 h 24.75 v -1.5 z"
         id="path4387" />
      <path
         style="fill-rule:evenodd;stroke:#000000;stroke-width:0.40000002pt;marker-start:none"
         d="m 149.20196,110 -5.19,3 v -6 z"
         id="path5970" />
    </g>
    <rect
       style="opacity:0.8;fill:#d4e0e0;fill-opacity:1;fill-rule:nonzero;stroke:none;stroke-width:1.59687197;stroke-linecap:round;stroke-linejoin:round;stroke-miterlimit:4;stroke-dasharray:1.59687194, 3.19374388;stroke-dashoffset:0pt;stroke-opacity:1"
       id="rect5658"
       width="510"
       height="230"
       x="20"
       y="230" />
    <g
       id="g5540"
       transform="translate(0,50.4531)">
      <rect
         y="190"
         x="40"
         height="30"
         width="80"
         id="rect5479"
         style="fill:#ccccff;fill-opacity:1;fill-rule:nonzero;stroke:#acadda;stroke-width:2;stroke-linecap:round;stroke-linejoin:round;stroke-miterlimit:4;stroke-dasharray:none;stroke-dashoffset:1.39999998;stroke-opacity:1" />
      <text
         id="text5483"
         y="208.311"
         x="80.468803"
         style="font-style:normal;font-weight:normal;line-height:0%;font-family:'Bitstream Vera Sans';text-align:center;text-anchor:middle;fill:#000000;fill-opacity:1;stroke:none;stroke-width:1px;stroke-linecap:butt;stroke-linejoin:miter;stroke-opacity:1"
         xml:space="preserve"><tspan
           y="208.311"
           x="80.468803"
           id="tspan5485"
           style="font-size:12px;line-height:1.25">Application</tspan></text>
    </g>
    <g
       id="g5545"
       transform="translate(0,50.4531)">
      <rect
         y="250"
         x="40"
         height="30"
         width="80"
         id="rect5494"
         style="fill:#ccccff;fill-opacity:1;fill-rule:nonzero;stroke:#acadda;stroke-width:2;stroke-linecap:round;stroke-linejoin:round;stroke-miterlimit:4;stroke-dasharray:none;stroke-dashoffset:1.39999998;stroke-opacity:1" />
      <text
         id="text5496"
         y="268.311"
         x="80.468803"
         style="font-style:normal;font-weight:normal;line-height:0%;font-family:'Bitstream Vera Sans';text-align:center;text-anchor:middle;fill:#000000;fill-opacity:1;stroke:none;stroke-width:1px;stroke-linecap:butt;stroke-linejoin:miter;stroke-opacity:1"
         xml:space="preserve"><tspan
           y="268.311"
           x="80.468803"
           id="tspan5498"
           style="font-size:12px;line-height:1.25">Transport</tspan></text>
    </g>
    <g
       id="g5550"
       transform="translate(0,50.4531)">
      <rect
         y="310"
         x="40"
         height="30"
         width="80"
         id="rect5520"
         style="fill:#ccccff;fill-opacity:1;fill-rule:nonzero;stroke:#acadda;stroke-width:2;stroke-linecap:round;stroke-linejoin:round;stroke-miterlimit:4;stroke-dasharray:none;stroke-dashoffset:1.39999998;stroke-opacity:1" />
      <text
         id="text5522"
         y="328.311"
         x="80.468803"
         style="font-style:normal;font-variant:normal;font-weight:normal;font-stretch:normal;line-height:0%;font-family:'Bitstream Vera Sans';text-align:center;text-anchor:middle;fill:#000000;fill-opacity:1;stroke:none;stroke-width:1px;stroke-linecap:butt;stroke-linejoin:miter;stroke-opacity:1"
         xml:space="preserve"><tspan
           id="tspan2322"
           x="80.468803"
           y="328.311"
           style="font-size:12px;line-height:1.25">Internet</tspan></text>
    </g>
    <rect
       style="fill:#d3d4ff;fill-opacity:1;fill-rule:nonzero;stroke:#acadda;stroke-width:2;stroke-linecap:round;stroke-linejoin:round;stroke-miterlimit:4;stroke-dasharray:none;stroke-dashoffset:1.39999998;stroke-opacity:1"
       id="rect5534"
       width="80"
       height="30"
       x="40"
       y="420.45312" />
    <text
       xml:space="preserve"
       style="font-style:normal;font-variant:normal;font-weight:normal;font-stretch:normal;line-height:0%;font-family:'Bitstream Vera Sans';text-align:center;text-anchor:middle;fill:#000000;fill-opacity:1;stroke:none;stroke-width:1px;stroke-linecap:butt;stroke-linejoin:miter;stroke-opacity:1"
       x="80.468803"
       y="438.76401"
       id="text5536"><tspan
         id="tspan2867"
         x="80.468803"
         y="438.76401"
         style="font-size:12px;line-height:1.25">Link</tspan></text>
    <g
       id="g6136">
      <path
         style="fill:#000000;fill-opacity:1;fill-rule:evenodd;stroke:none;stroke-width:1.5;stroke-linecap:butt;stroke-linejoin:miter;stroke-miterlimit:4;stroke-opacity:1"
         d="m 79.25,271.40625 v 24.3125 h 1.5 v -24.3125 z"
         id="path5560" />
      <path
         style="fill-rule:evenodd;stroke:#000000;stroke-width:0.40000002pt;marker-start:none"
         d="m 80,299.16855 -3,-5.19 h 6 z"
         id="path6142" />
    </g>
    <g
       id="g6128">
      <path
         style="fill:#000000;fill-opacity:1;fill-rule:evenodd;stroke:none;stroke-width:1.5;stroke-linecap:butt;stroke-linejoin:miter;stroke-miterlimit:4;stroke-opacity:1"
         d="M 79.25,331.4375 V 355.75 h 1.5 v -24.3125 z"
         id="path5562" />
      <path
         style="fill-rule:evenodd;stroke:#000000;stroke-width:0.40000002pt;marker-start:none"
         d="m 80,359.20621 -3,-5.19 h 6 z"
         id="path6134" />
    </g>
    <g
       id="g6120">
      <path
         style="fill:#000000;fill-opacity:1;fill-rule:evenodd;stroke:none;stroke-width:1.5;stroke-linecap:butt;stroke-linejoin:miter;stroke-miterlimit:4;stroke-opacity:1"
         d="M 79.25,391.4375 V 415.75 h 1.5 v -24.3125 z"
         id="path5564" />
      <path
         style="fill-rule:evenodd;stroke:#000000;stroke-width:0.40000002pt;marker-start:none"
         d="m 80,419.20621 -3,-5.19 h 6 z"
         id="path6126" />
    </g>
    <g
       id="g5566"
       transform="translate(390,50.4531)">
      <rect
         y="190"
         x="40"
         height="30"
         width="80"
         id="rect5568"
         style="fill:#ccccff;fill-opacity:1;fill-rule:nonzero;stroke:#acadda;stroke-width:2;stroke-linecap:round;stroke-linejoin:round;stroke-miterlimit:4;stroke-dasharray:none;stroke-dashoffset:1.39999998;stroke-opacity:1" />
      <text
         id="text5570"
         y="208.311"
         x="80.468803"
         style="font-style:normal;font-weight:normal;line-height:0%;font-family:'Bitstream Vera Sans';text-align:center;text-anchor:middle;fill:#000000;fill-opacity:1;stroke:none;stroke-width:1px;stroke-linecap:butt;stroke-linejoin:miter;stroke-opacity:1"
         xml:space="preserve"><tspan
           y="208.311"
           x="80.468803"
           id="tspan5572"
           style="font-size:12px;line-height:1.25">Application</tspan></text>
    </g>
    <g
       id="g5574"
       transform="translate(390,50.4531)">
      <rect
         y="250"
         x="40"
         height="30"
         width="80"
         id="rect5576"
         style="fill:#ccccff;fill-opacity:1;fill-rule:nonzero;stroke:#acadda;stroke-width:2;stroke-linecap:round;stroke-linejoin:round;stroke-miterlimit:4;stroke-dasharray:none;stroke-dashoffset:1.39999998;stroke-opacity:1" />
      <text
         id="text5578"
         y="268.311"
         x="80.468803"
         style="font-style:normal;font-weight:normal;line-height:0%;font-family:'Bitstream Vera Sans';text-align:center;text-anchor:middle;fill:#000000;fill-opacity:1;stroke:none;stroke-width:1px;stroke-linecap:butt;stroke-linejoin:miter;stroke-opacity:1"
         xml:space="preserve"><tspan
           y="268.311"
           x="80.468803"
           id="tspan5580"
           style="font-size:12px;line-height:1.25">Transport</tspan></text>
    </g>
    <g
       id="g5582"
       transform="translate(390,50.4531)">
      <rect
         y="310"
         x="40"
         height="30"
         width="80"
         id="rect5584"
         style="fill:#ccccff;fill-opacity:1;fill-rule:nonzero;stroke:#acadda;stroke-width:2;stroke-linecap:round;stroke-linejoin:round;stroke-miterlimit:4;stroke-dasharray:none;stroke-dashoffset:1.39999998;stroke-opacity:1" />
      <text
         id="text5586"
         y="328.311"
         x="80.468803"
         style="font-style:normal;font-weight:normal;line-height:0%;font-family:'Bitstream Vera Sans';text-align:center;text-anchor:middle;fill:#000000;fill-opacity:1;stroke:none;stroke-width:1px;stroke-linecap:butt;stroke-linejoin:miter;stroke-opacity:1"
         xml:space="preserve"><tspan
           id="tspan2326"
           x="80.468803"
           y="328.311"
           style="font-size:12px;line-height:1.25">Internet</tspan></text>
    </g>
    <g
       id="g5590"
       transform="translate(390,50.4531)">
      <rect
         y="370"
         x="40"
         height="30"
         width="80"
         id="rect5592"
         style="fill:#ccccff;fill-opacity:1;fill-rule:nonzero;stroke:#acadda;stroke-width:2;stroke-linecap:round;stroke-linejoin:round;stroke-miterlimit:4;stroke-dasharray:none;stroke-dashoffset:1.39999998;stroke-opacity:1" />
      <text
         id="text5594"
         y="388.311"
         x="80.468803"
         style="font-style:normal;font-variant:normal;font-weight:normal;font-stretch:normal;line-height:0%;font-family:'Bitstream Vera Sans';text-align:center;text-anchor:middle;fill:#000000;fill-opacity:1;stroke:none;stroke-width:1px;stroke-linecap:butt;stroke-linejoin:miter;stroke-opacity:1"
         xml:space="preserve"><tspan
           id="tspan2873"
           x="80.468803"
           y="388.311"
           style="font-size:12px;line-height:1.25">Link</tspan></text>
    </g>
    <g
       transform="translate(60)"
       id="g6008">
      <path
         style="fill:#000000;fill-opacity:1;fill-rule:evenodd;stroke:none;stroke-width:1.5;stroke-linecap:butt;stroke-linejoin:miter;stroke-miterlimit:4;stroke-opacity:1"
         d="m 409.25,275.15625 v 24.28125 h 1.5 v -24.28125 z"
         id="path5598" />
      <path
         style="fill-rule:evenodd;stroke:#000000;stroke-width:0.40000002pt;marker-start:none"
         d="m 410,271.70004 3,5.19 h -6 z"
         id="path6014" />
    </g>
    <g
       transform="translate(60)"
       id="g6016">
      <path
         style="fill:#000000;fill-opacity:1;fill-rule:evenodd;stroke:none;stroke-width:1.5;stroke-linecap:butt;stroke-linejoin:miter;stroke-miterlimit:4;stroke-opacity:1"
         d="m 409.25,335.15625 v 24.28125 h 1.5 v -24.28125 z"
         id="path5600" />
      <path
         style="fill-rule:evenodd;stroke:#000000;stroke-width:0.40000002pt;marker-start:none"
         d="m 410,331.70003 3,5.19 h -6 z"
         id="path6022" />
    </g>
    <g
       transform="translate(60)"
       id="g6024">
      <path
         style="fill:#000000;fill-opacity:1;fill-rule:evenodd;stroke:none;stroke-width:1.5;stroke-linecap:butt;stroke-linejoin:miter;stroke-miterlimit:4;stroke-opacity:1"
         d="m 409.25,395.15625 v 24.28125 h 1.5 v -24.28125 z"
         id="path5602" />
      <path
         style="fill-rule:evenodd;stroke:#000000;stroke-width:0.40000002pt;marker-start:none"
         d="m 410,391.70003 3,5.19 h -6 z"
         id="path6030" />
    </g>
    <g
       id="g5604"
       transform="translate(130,50.4531)">
      <rect
         y="310"
         x="40"
         height="30"
         width="80"
         id="rect5606"
         style="fill:#ccccff;fill-opacity:1;fill-rule:nonzero;stroke:#acadda;stroke-width:2;stroke-linecap:round;stroke-linejoin:round;stroke-miterlimit:4;stroke-dasharray:none;stroke-dashoffset:1.39999998;stroke-opacity:1" />
      <text
         id="text5608"
         y="328.311"
         x="80.468803"
         style="font-style:normal;font-variant:normal;font-weight:normal;font-stretch:normal;line-height:0%;font-family:'Bitstream Vera Sans';text-align:center;text-anchor:middle;fill:#000000;fill-opacity:1;stroke:none;stroke-width:1px;stroke-linecap:butt;stroke-linejoin:miter;stroke-opacity:1"
         xml:space="preserve"><tspan
           id="tspan2320"
           x="80.468803"
           y="328.311"
           style="font-size:12px;line-height:1.25">Internet</tspan></text>
    </g>
    <g
       id="g5620"
       transform="translate(260,50.4531)">
      <rect
         y="310"
         x="40"
         height="30"
         width="80"
         id="rect5622"
         style="fill:#ccccff;fill-opacity:1;fill-rule:nonzero;stroke:#acadda;stroke-width:2;stroke-linecap:round;stroke-linejoin:round;stroke-miterlimit:4;stroke-dasharray:none;stroke-dashoffset:1.39999998;stroke-opacity:1" />
      <text
         id="text5624"
         y="328.311"
         x="80.468803"
         style="font-style:normal;font-weight:normal;line-height:0%;font-family:'Bitstream Vera Sans';text-align:center;text-anchor:middle;fill:#000000;fill-opacity:1;stroke:none;stroke-width:1px;stroke-linecap:butt;stroke-linejoin:miter;stroke-opacity:1"
         xml:space="preserve"><tspan
           id="tspan2324"
           x="80.468803"
           y="328.311"
           style="font-size:12px;line-height:1.25">Internet</tspan></text>
    </g>
    <g
       transform="translate(20)"
       id="g6084">
      <path
         style="fill:#000000;fill-opacity:1;fill-rule:evenodd;stroke:none;stroke-width:1.5;stroke-linecap:butt;stroke-linejoin:miter;stroke-miterlimit:4;stroke-opacity:1"
         d="M 214.25,391.4375 V 415.75 h 1.5 v -24.3125 z"
         id="path5636" />
      <path
         style="fill-rule:evenodd;stroke:#000000;stroke-width:0.40000002pt;marker-start:none"
         d="m 215,419.20621 -3,-5.19 h 6 z"
         id="path6090" />
    </g>
    <g
       transform="translate(20)"
       id="g6092">
      <path
         style="fill:#000000;fill-opacity:1;fill-rule:evenodd;stroke:none;stroke-width:1.5;stroke-linecap:butt;stroke-linejoin:miter;stroke-miterlimit:4;stroke-opacity:1"
         d="m 164.25,395.15625 v 24.28125 h 1.5 v -24.28125 z"
         id="path5638" />
      <path
         style="fill-rule:evenodd;stroke:#000000;stroke-width:0.40000002pt;marker-start:none"
         d="m 165,391.70003 3,5.19 h -6 z"
         id="path6098" />
    </g>
    <g
       transform="translate(40)"
       id="g6056">
      <path
         style="fill:#000000;fill-opacity:1;fill-rule:evenodd;stroke:none;stroke-width:1.5;stroke-linecap:butt;stroke-linejoin:miter;stroke-miterlimit:4;stroke-opacity:1"
         d="M 324.25,391.4375 V 415.75 h 1.5 v -24.3125 z"
         id="path5640" />
      <path
         style="fill-rule:evenodd;stroke:#000000;stroke-width:0.40000002pt;marker-start:none"
         d="m 325,419.20621 -3,-5.19 h 6 z"
         id="path6062" />
    </g>
    <g
       transform="translate(40)"
       id="g6064">
      <path
         style="fill:#000000;fill-opacity:1;fill-rule:evenodd;stroke:none;stroke-width:1.5;stroke-linecap:butt;stroke-linejoin:miter;stroke-miterlimit:4;stroke-opacity:1"
         d="m 274.25,395.15625 v 24.28125 h 1.5 v -24.28125 z"
         id="path5642" />
      <path
         style="fill-rule:evenodd;stroke:#000000;stroke-width:0.40000002pt;marker-start:none"
         d="m 275,391.70003 3,5.19 h -6 z"
         id="path6070" />
    </g>
    <text
       xml:space="preserve"
       style="font-style:normal;font-variant:normal;font-weight:normal;font-stretch:normal;line-height:0%;font-family:'Bitstream Vera Sans';text-align:center;text-anchor:middle;fill:#000000;fill-opacity:1;stroke:none;stroke-width:1px;stroke-linecap:butt;stroke-linejoin:miter;stroke-opacity:1"
       x="275.46875"
       y="314"
       id="text5648"><tspan
         id="tspan5650"
         x="275.46875"
         y="314"
         style="font-size:16px;line-height:1.25">end-to-end communication services</tspan></text>
    <path
       style="fill:#000000;fill-opacity:1;fill-rule:evenodd;stroke:none;stroke-width:1.49434721;stroke-linecap:square;stroke-linejoin:miter;stroke-miterlimit:4;stroke-opacity:1"
       d="m 79.25,451.4375 v 0.74436 55.82684 0.74434 h 1.5 v -0.74434 -55.82684 -0.74436 z"
       id="path5702" />
    <g
       id="g5667"
       transform="translate(20,50.4531)">
      <rect
         y="370"
         x="150"
         height="30"
         width="80"
         id="rect5614"
         style="fill:#ccccff;fill-opacity:1;fill-rule:nonzero;stroke:#acadda;stroke-width:2;stroke-linecap:round;stroke-linejoin:round;stroke-miterlimit:4;stroke-dasharray:none;stroke-dashoffset:1.39999998;stroke-opacity:1" />
      <text
         id="text5616"
         y="388.311"
         x="190.46899"
         style="font-style:normal;font-variant:normal;font-weight:normal;font-stretch:normal;line-height:0%;font-family:'Bitstream Vera Sans';text-align:center;text-anchor:middle;fill:#000000;fill-opacity:1;stroke:none;stroke-width:1px;stroke-linecap:butt;stroke-linejoin:miter;stroke-opacity:1"
         xml:space="preserve"><tspan
           id="tspan2869"
           x="190.46899"
           y="388.311"
           style="font-size:12px;line-height:1.25">Link</tspan></text>
    </g>
    <g
       transform="translate(20)"
       id="g6100">
      <path
         style="fill:#000000;fill-opacity:1;fill-rule:evenodd;stroke:none;stroke-width:1.5;stroke-linecap:square;stroke-linejoin:miter;stroke-miterlimit:4;stroke-opacity:1"
         d="m 164.25,454.78125 v 0.75 27.15625 0.75 h 1.5 v -0.75 -27.15625 -0.75 z"
         id="path5716" />
      <path
         style="fill-rule:evenodd;stroke:#000000;stroke-width:0.40000002pt;marker-start:none"
         d="m 165,452.07445 3,5.19 h -6 z"
         id="path6106" />
    </g>
    <path
       style="fill:#ccffff;fill-opacity:1;fill-rule:evenodd;stroke:#acadda;stroke-width:1px;stroke-linecap:butt;stroke-linejoin:miter;stroke-opacity:1"
       d="m 145,483.9208 c 6.74992,-10.60702 20.56634,-11.69505 22,3 20,-10 23.69918,-3.07595 15,10 20,10 0,20 0,20 7.6014,9.36916 -3,28 -15,10 2,13 -21,19 -20,5 -13,12 -20,5 -19,-9 -15,5 -13,-13 -3,-18 -10.74806,-10.15095 -4,-18 5,-16 -6.23895,-12.55944 13,-13 15,-5 z"
       id="path5662" />
    <g
       id="g5628"
       transform="translate(260,50.4531)">
      <rect
         y="370"
         x="40"
         height="30"
         width="80"
         id="rect5630"
         style="fill:#ccccff;fill-opacity:1;fill-rule:nonzero;stroke:#acadda;stroke-width:2;stroke-linecap:round;stroke-linejoin:round;stroke-miterlimit:4;stroke-dasharray:none;stroke-dashoffset:1.39999998;stroke-opacity:1" />
      <text
         id="text5632"
         y="388.311"
         x="80.468803"
         style="font-style:normal;font-variant:normal;font-weight:normal;font-stretch:normal;line-height:0%;font-family:'Bitstream Vera Sans';text-align:center;text-anchor:middle;fill:#000000;fill-opacity:1;stroke:none;stroke-width:1px;stroke-linecap:butt;stroke-linejoin:miter;stroke-opacity:1"
         xml:space="preserve"><tspan
           id="tspan2871"
           x="80.468803"
           y="388.311"
           style="font-size:12px;line-height:1.25">Link</tspan></text>
    </g>
    <g
       transform="translate(40)"
       id="g6072">
      <path
         style="fill:#000000;fill-opacity:1;fill-rule:evenodd;stroke:none;stroke-width:1.5;stroke-linecap:square;stroke-linejoin:miter;stroke-miterlimit:4;stroke-opacity:1"
         d="m 274.25,454.78125 v 0.75 27.15625 0.75 h 1.5 v -0.75 -27.15625 -0.75 z"
         id="path5730" />
      <path
         style="fill-rule:evenodd;stroke:#000000;stroke-width:0.40000002pt;marker-start:none"
         d="m 275,452.07445 3,5.19 h -6 z"
         id="path6078" />
    </g>
    <path
       style="fill:#ccffff;fill-opacity:1;fill-rule:evenodd;stroke:#acadda;stroke-width:1.09696996px;stroke-linecap:butt;stroke-linejoin:miter;stroke-opacity:1"
       d="m 265.40848,485 c 8.13485,-10.59096 24.78607,-11.67734 26.51388,2.99546 24.10353,-9.98486 28.56169,-3.0713 18.07764,9.98486 24.10353,9.98485 0,19.9697 0,19.9697 9.16104,9.35497 -3.61552,27.9576 -18.07764,9.98485 2.41035,12.98032 -25.3087,18.97123 -24.10353,4.99243 -15.66729,11.98183 -24.10352,4.99243 -22.89835,-8.98637 -18.07765,4.99243 -15.66729,-12.9803 -3.61553,-17.97273 -12.95331,-10.13558 -4.82071,-17.97274 6.02588,-15.97577 -7.51904,-12.54042 15.66729,-12.98031 18.07765,-4.99243 z"
       id="path5686" />
    <text
       xml:space="preserve"
       style="font-style:normal;font-variant:normal;font-weight:normal;font-stretch:normal;line-height:0%;font-family:'Bitstream Vera Sans';text-align:center;text-anchor:middle;fill:#000000;fill-opacity:1;stroke:none;stroke-width:1px;stroke-linecap:butt;stroke-linejoin:miter;stroke-opacity:1"
       x="277.004"
       y="500"
       id="text5688"><tspan
         y="500"
         x="277.004"
         id="tspan2338"
         style="font-size:12px;line-height:1">Fiber,</tspan><tspan
         y="512"
         x="277.004"
         id="tspan2340"
         style="font-size:12px;line-height:1">Satellite,</tspan><tspan
         y="524"
         x="277.004"
         id="tspan2342"
         style="font-size:12px;line-height:1">etc.</tspan></text>
    <g
       transform="translate(60)"
       id="g6032">
      <path
         style="fill:#000000;fill-opacity:1;fill-rule:evenodd;stroke:none;stroke-width:1.5;stroke-linecap:square;stroke-linejoin:miter;stroke-miterlimit:4;stroke-opacity:1"
         d="m 409.25,454.625 v 0.75 51.28125 0.75 h 1.5 v -0.75 -51.28125 -0.75 z"
         id="path5734" />
      <path
         style="fill-rule:evenodd;stroke:#000000;stroke-width:0.40000002pt;marker-start:none"
         d="m 410,451.90844 3,5.19 h -6 z"
         id="path6038" />
    </g>
    <path
       style="fill:#000000;fill-opacity:1;fill-rule:evenodd;stroke:none;stroke-width:2.00271559;stroke-linecap:square;stroke-linejoin:miter;stroke-miterlimit:4;stroke-opacity:1"
       d="m 440,505.96875 v 1.46875 h 1.33696 28.07608 1.33696 v -1.46875 h -1.33696 -28.07608 z"
       id="path5736" />
    <path
       style="fill:#ccffff;fill-opacity:1;fill-rule:evenodd;stroke:#acadda;stroke-width:1.03286004px;stroke-linecap:butt;stroke-linejoin:miter;stroke-opacity:1"
       d="m 393.27249,483.93312 c 7.20445,-10.60158 21.95124,-11.68905 23.48144,2.99846 21.34678,-9.99486 25.29505,-3.07437 16.01008,9.99487 21.34677,9.99487 0,19.98974 0,19.98974 8.11327,9.36436 -3.20202,27.98563 -16.01008,9.99487 2.13468,12.99333 -22.4141,18.99025 -21.34676,4.99744 -13.8754,11.99383 -21.34677,4.99743 -20.27943,-8.99538 -16.01007,4.99743 -13.8754,-12.99334 -3.20201,-17.99077 -11.47182,-10.14575 -4.26936,-17.99077 5.33669,-15.9918 -6.65907,-12.55299 13.8754,-12.99332 16.01007,-4.99743 z"
       id="path5694" />
    <text
       xml:space="preserve"
       style="font-style:normal;font-variant:normal;font-weight:normal;font-stretch:normal;line-height:0%;font-family:'Bitstream Vera Sans';text-align:center;text-anchor:middle;fill:#000000;fill-opacity:1;stroke:none;stroke-width:1px;stroke-linecap:butt;stroke-linejoin:miter;stroke-opacity:1"
       x="404.061"
       y="511.75101"
       id="text5696"><tspan
         y="511.75101"
         x="404.061"
         id="tspan2879"
         style="font-size:12px;line-height:1.25">Ethernet</tspan></text>
    <text
       xml:space="preserve"
       style="font-style:normal;font-variant:normal;font-weight:normal;font-stretch:normal;line-height:0%;font-family:'Bitstream Vera Sans';text-align:center;text-anchor:middle;fill:#000000;fill-opacity:1;stroke:none;stroke-width:1px;stroke-linecap:butt;stroke-linejoin:miter;stroke-opacity:1"
       x="274.73401"
       y="220"
       id="text5829"><tspan
         id="tspan5831"
         x="274.73401"
         y="220"
         style="font-size:32px;line-height:1.25">Data Flow</tspan></text>
    <text
       xml:space="preserve"
       style="font-style:normal;font-variant:normal;font-weight:normal;font-stretch:normal;line-height:0%;font-family:'Bitstream Vera Sans';text-align:center;text-anchor:middle;fill:#000000;fill-opacity:1;stroke:none;stroke-width:1px;stroke-linecap:butt;stroke-linejoin:miter;stroke-opacity:1"
       x="270.21899"
       y="40"
       id="text5833"><tspan
         id="tspan5835"
         x="270.21899"
         y="40"
         style="font-size:32px;line-height:1.25">Network Topology</tspan></text>
    <text
       id="text24664"
       y="511.82999"
       x="154.80299"
       style="font-style:normal;font-variant:normal;font-weight:normal;font-stretch:normal;line-height:0%;font-family:'Bitstream Vera Sans';text-align:center;text-anchor:middle;fill:#000000;fill-opacity:1;stroke:none;stroke-width:1px;stroke-linecap:butt;stroke-linejoin:miter;stroke-opacity:1"
       xml:space="preserve"><tspan
         id="tspan24666"
         x="154.80299"
         y="511.82999"
         style="font-size:12px;line-height:1.25">Ethernet</tspan></text>
    <g
       id="g2319"
       transform="matrix(0.98661461,0,0,1.4571997,154.87786,-119.93086)">
      <path
         style="fill:#000000;fill-opacity:1;fill-rule:evenodd;stroke:none;stroke-width:1.5;stroke-linecap:butt;stroke-linejoin:miter;stroke-miterlimit:4;stroke-opacity:1"
         d="M 214.25,391.4375 V 415.75 h 1.5 v -24.3125 z"
         id="path2321" />
      <path
         style="fill-rule:evenodd;stroke:#000000;stroke-width:0.40000002pt;marker-start:none"
         d="m 215,419.20621 -3,-5.19 h 6 z"
         id="path2323" />
    </g>
    <g
       id="g2328"
       transform="matrix(0.98867785,0,0,1.4105266,24.163903,-100.17615)">
      <path
         style="fill:#000000;fill-opacity:1;fill-rule:evenodd;stroke:none;stroke-width:1.5;stroke-linecap:butt;stroke-linejoin:miter;stroke-miterlimit:4;stroke-opacity:1"
         d="M 214.25,391.4375 V 415.75 h 1.5 v -24.3125 z"
         id="path2330" />
      <path
         style="fill-rule:evenodd;stroke:#000000;stroke-width:0.40000002pt;marker-start:none"
         d="m 215,419.20621 -3,-5.19 h 6 z"
         id="path2332" />
    </g>
    <g
       transform="matrix(1.2553775,0,0,1,-32.576073,1.54688)"
       id="g2317">
      <path
         id="path2319"
         d="m 125,316.21875 h 3 v -1.53125 h -3 z m 9,0 h 3 v -1.53125 h -3 z m 9,0 h 3 v -1.53125 h -3 z m 9,0 h 3 v -1.53125 h -3 z m 9,0 h 3 v -1.53125 h -3 z m 9,0 h 3 v -1.53125 h -3 z m 9,0 h 3 v -1.53125 h -3 z m 9,0 h 3 v -1.53125 h -3 z m 9,0 h 3 v -1.53125 h -3 z m 9,0 h 3 v -1.53125 h -3 z m 9,0 h 3 v -1.53125 h -3 z m 9,0 h 3 v -1.53125 h -3 z m 9,0 h 3 v -1.53125 h -3 z m 9,0 h 3 v -1.53125 h -3 z m 9,0 h 3 v -1.53125 h -3 z m 9,0 h 3 v -1.53125 h -3 z m 9,0 h 3 v -1.53125 h -3 z m 9,0 h 3 v -1.53125 h -3 z m 9,0 h 3 v -1.53125 h -3 z m 9,0 h 3 v -1.53125 h -3 z m 9,0 h 3 v -1.53125 h -3 z m 9,0 h 3 v -1.53125 h -3 z m 9,0 h 3 v -1.53125 h -3 z m 9,0 h 3 v -1.53125 h -3 z m 9,0 h 3 v -1.53125 h -3 z m 9,0 h 3 v -1.53125 h -3 z m 9,0 h 3 v -1.53125 h -3 z"
         style="fill:#000000;fill-opacity:1;fill-rule:evenodd;stroke:none;stroke-width:1.5;stroke-linecap:butt;stroke-linejoin:miter;stroke-miterlimit:4;stroke-dasharray:3, 6;stroke-dashoffset:0;stroke-opacity:1" />
      <path
         id="path2322"
         d="m 121.538,315.45312 5.19,-3 v 6 z"
         style="fill-rule:evenodd;stroke:#000000;stroke-width:0.40000002pt;marker-start:none" />
      <path
         id="path2324"
         d="m 368.47567,315.45312 -5.19,3 v -6 z"
         style="fill-rule:evenodd;stroke:#000000;stroke-width:0.40000002pt;marker-start:none" />
    </g>
    <text
       id="text2326"
       y="254.04297"
       x="276.37695"
       style="font-style:normal;font-variant:normal;font-weight:normal;font-stretch:normal;line-height:0%;font-family:'Bitstream Vera Sans';text-align:center;text-anchor:middle;fill:#000000;fill-opacity:1;stroke:none;stroke-width:1px;stroke-linecap:butt;stroke-linejoin:miter;stroke-opacity:1"
       xml:space="preserve"><tspan
         y="254.04297"
         x="276.37695"
         id="tspan2328"
         style="font-size:16px;line-height:1.25">application-specific</tspan></text>
    <g
       id="g2330"
       transform="matrix(1.2543651,0,0,1,-32.203028,-53.70312)">
      <path
         style="fill:#000000;fill-opacity:1;fill-rule:evenodd;stroke:none;stroke-width:1.5;stroke-linecap:butt;stroke-linejoin:miter;stroke-miterlimit:4;stroke-dasharray:3, 6;stroke-dashoffset:0;stroke-opacity:1"
         d="m 125,316.21875 h 3 v -1.53125 h -3 z m 9,0 h 3 v -1.53125 h -3 z m 9,0 h 3 v -1.53125 h -3 z m 9,0 h 3 v -1.53125 h -3 z m 9,0 h 3 v -1.53125 h -3 z m 9,0 h 3 v -1.53125 h -3 z m 9,0 h 3 v -1.53125 h -3 z m 9,0 h 3 v -1.53125 h -3 z m 9,0 h 3 v -1.53125 h -3 z m 9,0 h 3 v -1.53125 h -3 z m 9,0 h 3 v -1.53125 h -3 z m 9,0 h 3 v -1.53125 h -3 z m 9,0 h 3 v -1.53125 h -3 z m 9,0 h 3 v -1.53125 h -3 z m 9,0 h 3 v -1.53125 h -3 z m 9,0 h 3 v -1.53125 h -3 z m 9,0 h 3 v -1.53125 h -3 z m 9,0 h 3 v -1.53125 h -3 z m 9,0 h 3 v -1.53125 h -3 z m 9,0 h 3 v -1.53125 h -3 z m 9,0 h 3 v -1.53125 h -3 z m 9,0 h 3 v -1.53125 h -3 z m 9,0 h 3 v -1.53125 h -3 z m 9,0 h 3 v -1.53125 h -3 z m 9,0 h 3 v -1.53125 h -3 z m 9,0 h 3 v -1.53125 h -3 z m 9,0 h 3 v -1.53125 h -3 z"
         id="path2333" />
      <path
         style="fill-rule:evenodd;stroke:#000000;stroke-width:0.40000002pt;marker-start:none"
         d="m 121.538,315.45312 5.19,-3 v 6 z"
         id="path2335" />
      <path
         style="fill-rule:evenodd;stroke:#000000;stroke-width:0.40000002pt;marker-start:none"
         d="m 368.47567,315.45312 -5.19,3 v -6 z"
         id="path2337" />
    </g>
    <text
       xml:space="preserve"
       style="font-style:normal;font-variant:normal;font-weight:normal;font-stretch:normal;line-height:0%;font-family:'Bitstream Vera Sans';text-align:center;text-anchor:middle;fill:#000000;fill-opacity:1;stroke:none;stroke-width:1px;stroke-linecap:butt;stroke-linejoin:miter;stroke-opacity:1"
       x="275.46875"
       y="332"
       id="text5648-3"><tspan
         id="tspan5650-6"
         x="275.46875"
         y="332"
         style="font-size:16px;line-height:1.25">(for applications/processes)</tspan></text>
    <g
       id="g3946">
      <path
         style="fill:#000000;fill-opacity:1;fill-rule:evenodd;stroke:none;stroke-width:2.08204603;stroke-linecap:square;stroke-linejoin:miter;stroke-miterlimit:4;stroke-opacity:1"
         d="m 80,507.25 v 1.5 h 1.444972 31.909788 1.44497 v -1.5 h -1.44497 -31.909788 z"
         id="path5700" />
      <path
         style="fill-rule:evenodd;stroke:#000000;stroke-width:0.40000002pt;marker-start:none"
         d="m 120.19,508 -5.19,3 v -6 z"
         id="path6106-2" />
    </g>
  </g>
</svg>
